{
  "@context": [
    {
      "as": "http://www.w3.org/ns/activitystreams#",
      "sioc": "http://rdfs.org/sioc/types#",
      "foaf": "http://xmlns.com/foaf/0.1/",
      "blog": "http://vocab.amy.so/blog#",
      "dc": "http://purl.org/dc/elements/1.1/",
			"dct": "http://purl.org/dc/terms/",

      "content": "sioc:content",
      "name": "dct:title",
      "category": "sioc:topic",
      "published": {
        "@id": "dct:created",
        "@type": "xsd:dateTime"
      },
      "modified": {
        "@id": "dct:modified",
        "@type": "xsd:dateTime"
      },
      "summary": "as:summary",
      "in-reply-to": {
        "@id": "sioc:reply_of",
        "@type": "@id"
      },
      "like-of": {
        "@id": "blog:like_of",
        "@type": "@id"
      },
      "bookmark-of": {
        "@id": "blog:bookmark_of",
        "@type": "@id"
      },
      "location": {
        "@id": "as:location",
        "@type": "@id"
      },
      "repost-of": {
        "@id": "blog:share_of",
        "@type": "@id"
      },
      "author": {
        "@id": "dc:creator",
        "@type": "@id"
      },
      "cost": "blog:cost",
      "image": {
        "@id": "as:image",
        "@type": "@id"
      },
      "photo": {
        "@id": "as:image",
        "@type": "@id"
      }
    }
  ]
}